[
	"enode://dd87b7d426e394583d3b82cf3928b2d1b82aa76a831e5201b99e5db62edba5f5c62b7cb350dc5f8882bb4f8f56661d87f18ab1d1483a0d7eb693368bce043f34@127.0.0.1:30303?discport=0",
	"enode://1524df2c4f3078a38da92928383852a98c9c83b9a24897570c678cc2a7906dbd94615f3337c1a05a3db0966f1de6b993a34460b5aa937bd96892a5e05ac817fb@127.0.0.1:30303?discport=0",
	"enode://2abb34674c2945aaac5f3995ea1b4c4952563512874907e642fdfb6d7ffbf5d597150b6690f682afb76ab52a9d15a62ad9ceee9858eb9df7b84ac4ac8066595a@127.0.0.1:30303?discport=0",
	"enode://07c87f046df6db38f6eb0ecdd9effe84498d03563b9251bcaf38b1eba4df88b268c81d0eed40d843c65baf948cd1aa12818caa071bf83276f5a73f3ae499c054@127.0.0.1:30303?discport=0",
	"enode://22c9c74676e5c006c305799d36621c6f9e80b1d0344f148033eba1be2de06e717edb65d6f4326c6c0a0486c14549bb7d45c9875dd9c934467a1e96881cca1f83@127.0.0.1:30303?discport=0",
	"enode://d57bad1667bd86085757b94bad0c07784929fd3b039778b0ab1f51eddf4fe6dd0ce59c945962083d48baa2ad73f48ab23d9dfa3fa58f6a9cb1c3cf6039cbccea@127.0.0.1:30303?discport=0",
	"enode://9d6e3248b8f6f990b581b0fdd4455278decea96e4ba3e67e368479a9ae9744f0b21404ca4403c684ed4a3070f24d90e4ee8252f697ceed7e74f4cea8464c9cbe@127.0.0.1:30303?discport=0",
	"enode://fa639e4e6060be7344a8896bfee3e875ce56b31b67fdc6e47ea343fb27d86deecbf9e0094221f234a2a3d7c88d047fa5a2c4c92562288b5320f5dd6c8ba079de@127.0.0.1:30303?discport=0",
	"enode://d620967384a85abfedb41cb0199f4ce911a22a8d5e81a8bea64ddc4596aebee4497db09728dad13a227c6927209e8777d6b4c2aeff42663eec979541b5cf350e@127.0.0.1:30303?discport=0",
	"enode://4ed76a79ee9ac06c3eca3f0d74340b3e3ed2666c7f24b27895e1b7c1ce369807b205dd50cb32486e44a4d4b83698642d51a376efd5e2fe5015b42d53329ec8bd@127.0.0.1:30303?discport=0",
	"enode://0d1b031a04ffe2e0e7646e718c02b125492e1d719b7f75b7ad804a57dcf454fc0bbeb2a4fa621f2f250909bd084ca57b6c6d30124e98cb04ec46e4793ab00573@127.0.0.1:30303?discport=0",
	"enode://79d30f0c9113aa48564c654e5e88129a0d95ac52ab121d465415c423be36f7c26557424bbc846615cedcd5fd5d9e364abb74b9d8a14f9681a48f9a84f09b4561@127.0.0.1:30303?discport=0"
]
